................
----------------------------------------------------------------------
Ran 16 tests in 0.964s

OK
Name             Stmts   Miss Branch BrPart  Cover   Missing
------------------------------------------------------------
Collatz.py          40      0     16      1    98%   114->116
TestCollatz.py      74      0      0      0   100%
------------------------------------------------------------
TOTAL              114      0     16      1    99%
