306 160 128
262 227 128
306 87 128
29 814 171
173 208 120
210 806 171
475 759 171
410 24 144
231 442 144
829 654 171
514 694 145
174 650 145
811 166 171
639 965 179
734 119 171
384 769 171
851 15 171
856 200 171
895 462 179
260 621 144
411 81 144
879 889 148
234 8 128
326 731 171
478 825 171
677 263 145
136 951 179
757 125 171
387 317 144
138 447 144
275 235 128
496 386 142
999 102 179
839 836 86
745 55 171
16 809 171
721 519 171
678 231 145
819 675 171
945 464 179
186 251 128
366 65 144
269 202 128
342 287 144
340 787 171
647 134 144
68 312 128
309 368 144
998 722 179
226 153 125
536 504 124
586 324 144
937 813 179
463 670 145
295 191 128
687 59 145
401 300 144
405 552 142
536 862 171
796 112 171
61 923 179
503 134 144
557 151 144
724 322 171
543 307 144
46 574 144
976 346 179
647 767 171
706 726 127
632 252 144
292 966 179
723 122 171
499 640 137
317 33 131
216 792 171
303 885 179
57 124 119
224 40 125
651 81 145
910 939 174
401 983 179
238 529 144
337 9 144
22 374 144
493 289 144
735 482 171
205 950 179
18 327 144
623 374 142
36 733 171
722 98 171
57 790 171
864 204 171
73 963 179
381 879 179
402 667 145
484 549 142
655 955 179
272 149 128
321 214 131
274 571 144
830 753 153
871 911 179
888 1 179
710 763 153
158 510 144
918 927 130
39 318 131
573 478 142
25 112 119
134 427 144
541 284 144
763 353 171
268 295 118
198 529 144
111 299 128
614 474 142
628 63 144
481 760 171
883 263 179
229 797 171
231 759 171
32 745 171
202 50 125
417 427 134
513 212 144
903 873 148
380 335 126
329 435 134
978 196 179
835 687 171
897 658 179
971 820 179
673 66 145
267 513 144
935 296 179
78 552 144
130 168 117
618 186 144
357 154 144
945 477 179
439 354 134
561 498 137
153 374 144
192 526 144
303 400 144
713 840 153
699 643 145
204 181 120
835 13 171
633 390 142
114 331 144
319 533 144
866 796 148
254 290 123
441 920 179
771 522 171
800 842 135
435 686 145
641 18 144
455 648 142
518 464 142
843 859 148
128 789 171
429 862 171
444 946 179
120 677 145
847 903 179
495 709 171
256 11 128
334 54 144
483 312 144
695 547 145
52 108 119
464 937 179
251 209 128
617 237 144
242 263 123
54 501 144
257 137 128
817 793 135
328 661 145
655 801 171
442 654 145
791 527 171
22 60 113
834 272 171
619 205 144
843 206 171
602 628 132
587 486 142
638 157 144
507 480 142
781 967 179
171 870 171
729 817 153
180 396 144
251 306 123
578 770 171
163 45 122
195 952 179
572 915 179
309 491 144
401 24 144
867 734 153
503 781 171
150 586 144
430 980 179
47 910 179
650 855 171
649 646 145
267 855 171
596 958 179
881 422 179
226 253 128
675 31 145
341 469 134
723 829 153
580 513 137
248 308 123
303 623 144
409 904 179
662 769 171
685 405 145
929 827 179
295 443 144
789 265 171
199 75 125
990 849 179
716 745 140
447 142 144
529 368 142
64 622 144
759 766 153
991 282 179
701 324 145
779 641 171
54 648 144
672 217 145
214 798 171
675 71 145
204 878 179
825 654 171
14 779 171
773 710 153
821 351 171
880 672 179
187 210 120
42 44 30
423 832 171
