........................
----------------------------------------------------------------------
Ran 24 tests in 1.642s

OK
Name             Stmts   Miss Branch BrPart  Cover   Missing
------------------------------------------------------------
Collatz.py          61      0     34      1    99%   91->84
TestCollatz.py      95      0      0      0   100%
------------------------------------------------------------
TOTAL              156      0     34      1    99%
